{
  "images" : [
    {
      "filename" : "inp_ic_arrow_right_gray.png",
      "idiom" : "universal",
      "scale" : "1x"
    },
    {
      "filename" : "inp_ic_arrow_right_gray-1.png",
      "idiom" : "universal",
      "scale" : "2x"
    },
    {
      "filename" : "inp_ic_arrow_right_gray-2.png",
      "idiom" : "universal",
      "scale" : "3x"
    }
  ],
  "info" : {
    "author" : "xcode",
    "version" : 1
  }
}
